staging/com/TestCaseAnalyzer/TransformerClass.class
staging/com/TestCaseAnalyzer/RetryAnalyzer.class
staging/com/PigeonLab/util/Sendmail.class
staging/com/PigeonLab/pages/PigeonLabDashboard.class
staging/com/PigeonLab/util/Reader.class
staging/com/PigeonLab/util/util.class
staging/com/PigeonLab/util/WebEventListener.class
staging/com/ExtentReportListener/ExtentReportListener.class
staging/com/PigeonLab/util/Sendmail$1.class
staging/com/PigeonLab/util/ExcelApi.class
staging/com/PigeonLab/util/XLs_Reader.class
staging/com/PigeonLab/base/Base.class
staging/com/PigeonLab/pages/AudienceWebApp.class
staging/com/PigeonLab/util/readexceldata.class
staging/com/PigeonLab/util/readdata.class
